Dunning Kruger Effect - JM Barbone
…
To clarify, the calculation of percentile rank is as follows:

\[\text{PR}_i = \frac{c_\ell + 0.5 f_i}{N} \times 100%\]

Where \(c_\ell\) is the count of scores lower than the score of interest, \(f_i\) is the frequency of the score of interest, and \(N\) is the total number of scores.
With this formula, our percentile ranks will always be 0 < \(PR_i\) < 100.

random_data <- tibble(actual = rnorm(1000),
                      estimate = rnorm(1000)) %>% 
  mutate_all(percentile_rank)
random_data

# A tibble: 1,000 x 2
   actual estimate
    <dbl>    <dbl>
 1   92.0    98.8 
 2   29.2    70.4 
 3   65.6    84.6 
 4   73.8    64.6 
 5   67.0    15.0 
 6   46.2    27.4 
 7   94.6    57.6 
 8   46.4     0.05
 9   97.9    19.8 
10   47.9    79.8 
# ... with 990 more rows
…
(x <- run_correlations(sev_random, "actual", "estimate") %>% arrange(p.value))

# A tibble: 100 x 9
      id estimate statistic p.value parameter conf.low conf.high method
   <dbl>    <dbl>     <dbl>   <dbl>     <int>    <dbl>     <dbl> <chr> 
 1    35   -0.207     -2.67 0.00830       159 -0.351    -0.0545  Pears~
 2    24    0.185      2.37 0.0188        159  0.0312    0.330   Pears~
 3    99    0.170      2.17 0.0314        159  0.0154    0.316   Pears~
 4    22   -0.164     -2.09 0.0379        159 -0.311    -0.00930 Pears~
 5    90   -0.159     -2.03 0.0443        159 -0.306    -0.00417 Pears~
 6     6    0.148      1.89 0.0610        159 -0.00685   0.296   Pears~
 7     9    0.141      1.79 0.0747        159 -0.0141    0.289   Pears~
 8    97    0.133      1.70 0.0914        159 -0.0216    0.282   Pears~
 9    51   -0.127     -1.61 0.109         159 -0.276     0.0285  Pears~
10    89   -0.124     -1.57 0.118         159 -0.273     0.0316  Pears~
# ... with 90 more rows, and 1 more variable: alternative <chr>

(y <- run_correlations(sev_bins, "bin", "mean_est") %>% arrange(p.value))

# A tibble: 100 x 9
# Groups:   id [100]
      id estimate statistic p.value parameter conf.low conf.high method
   <dbl>    <dbl>     <dbl>   <dbl>     <int>    <dbl>     <dbl> <chr> 
 1    99    0.936      4.62  0.0191         3    0.312     0.996 Pears~
 2    35   -0.936     -4.61  0.0192         3   -0.996    -0.309 Pears~
 3    28   -0.907     -3.72  0.0337         3   -0.994    -0.122 Pears~
 4    41    0.845      2.74  0.0715         3   -0.146     0.990 Pears~
 5    68    0.836      2.64  0.0780         3   -0.177     0.989 Pears~
 6     5   -0.804     -2.34  0.101          3   -0.987     0.269 Pears~
 7     6    0.796      2.28  0.107          3   -0.290     0.986 Pears~
 8    10    0.786      2.20  0.115          3   -0.314     0.985 Pears~
 9    89   -0.761     -2.03  0.135          3   -0.983     0.369 Pears~
10    13   -0.758     -2.01  0.138          3   -0.983     0.376 Pears~
# ... with 90 more rows, and 1 more variable: alternative <chr>
…
