Dunning Kruger Effect - JM Barbone
…
To clarify, the calculation of percentile rank is as follows:

\[\text{PR}_i = \frac{c_\ell + 0.5 f_i}{N} \times 100%\]

Where \(c_\ell\) is the count of scores lower than the score of interest, \(f_i\) is the frequency of the score of interest, and \(N\) is the total number of scores.
With this formula, our percentile ranks will always be 0 < \(PR_i\) < 100.

random_data <- tibble(actual = rnorm(1000),
                      estimate = rnorm(1000)) %>% 
  mutate_all(percentile_rank)
random_data

# A tibble: 1,000 x 2
   actual estimate
    <dbl>    <dbl>
 1   92.0    98.8 
 2   29.2    70.4 
 3   65.6    84.6 
 4   73.8    64.6 
 5   67.0    15.0 
 6   46.2    27.4 
 7   94.6    57.6 
 8   46.4     0.05
 9   97.9    19.8 
10   47.9    79.8 
# ... with 990 more rows
…
We’ll shape our normal distributions around the values found in the paper.

percentile_rank <- function(x) {
  floor(percent_rank(x) * 100)
}
adj_random <- tibble(actual = rnorm(1000, 50, sd = 20),
                     estimate = rnorm(1000, 75, sd = 15)) %>%
  mutate_all(percentile_rank)
adj_random

# A tibble: 1,000 x 2
   actual estimate
    <dbl>    <dbl>
 1     44       50
 2     22       80
 3     36       62
 4     63       43
 5      2       36
 6     17       44
 7     59       78
 8     14       57
 9     84       29
10     16       40
# ... with 990 more rows
…
