J M Barbone - Solving one task with three equivalent solutions: for, do.call, vapply
…
Let’s create some random data to represent our subjects, our doses, and an arbitrary time metric. We’re also going to make this harder by using the difftime.

We’re also going to grab some names using a function from the wakefield package which you can use to create fake data, appropriately named. [^note]

^note: I’m not too savvy with this package yet but would like to experiment more for building dummy data sets.

subj <- sort(sample(wakefield::name(500), 1e4, TRUE))
dose <- sample(seq.int(10, 80, 10), 1e4, TRUE)
time <- as.difftime(runif(1e4) * 100, units = "days")

df <- tibble(subj, dose, time)
df

# A tibble: 10,000 × 3
   subj     dose time          
   <chr>   <dbl> <drtn>        
 1 Aadhya     10 81.430584 days
 2 Aadhya     10 80.324186 days
 3 Aadhya     40 64.917350 days
 4 Aadhya     80 17.631323 days
 5 Aadhya     40  8.970711 days
 6 Aadhya     20 96.518079 days
 7 Aadhya     60 61.493537 days
 8 Aadhya     20 29.073014 days
 9 Aadhya     80  6.221622 days
10 Aaditri    50 54.387006 days
# … with 9,990 more rows

Finding the total sum of time at each dose is easy:

df %>% 
  group_by(subj, dose) %>% 
  summarise(time = sum(time), .groups = "drop") %>% 
  pivot_wider(
    names_from = "dose",
    names_sort = TRUE,
    values_from = "time"
    )

# A tibble: 500 × 9
   subj    `10`            `20`           `30`     `40`  `50`  `60`  `70`  `80` 
   <chr>   <drtn>          <drtn>         <drtn>   <drt> <drt> <drt> <drt> <drt>
 1 Aadhya  161.754770 days 125.59109 days        …  73.…     …  61.…     …  23.…
 2 Aaditri  30.671230 days 172.20370 days        … 224.… 131.… 193.…  67.…  93.…
 3 Aaleeya 174.678539 days 115.27412 days 159.963… 198.… 184.…  77.… 214.… 292.…
 4 Aaleyah 183.860531 days  88.26322 days        …   9.… 261.… 259.… 214.… 100.…
 5 Aamia    70.429895 days 149.78110 days 122.847…  40.…  32.…  74.… 116.… 161.…
 6 Aarish  232.188970 days 234.42468 days  70.517…     …   7.… 111.… 153.… 118.…
 7 Abdulah   8.890604 days  37.66665 days 130.246…     …     … 215.… 159.… 162.…
 8 Abhinav 221.372920 days 108.87628 days 114.363… 280.… 136.… 100.…  97.…  95.…
 9 Abhiram  73.235939 days 182.81309 days 295.836… 107.…  96.… 137.… 123.…  68.…
10 Abyade  107.638230 days 596.18206 days 168.711… 146.…  61.…  34.… 281.… 149.…
# … with 490 more rows
…
difftime0 <- as.difftime(0, units = "days")

res <- df %>% 
  group_by(subj, dose) %>% 
  summarise(time = sum(time), .groups = "drop") %>% 
  pivot_wider(
    names_from = "dose",
    names_sort = TRUE,
    values_from = "time",
    values_fill = difftime0
  )
res

# A tibble: 500 × 9
   subj    `10`            `20`           `30`     `40`  `50`  `60`  `70`  `80` 
   <chr>   <drtn>          <drtn>         <drtn>   <drt> <drt> <drt> <drt> <drt>
 1 Aadhya  161.754770 days 125.59109 days   0.000…  73.…   0.…  61.…   0.…  23.…
 2 Aaditri  30.671230 days 172.20370 days   0.000… 224.… 131.… 193.…  67.…  93.…
 3 Aaleeya 174.678539 days 115.27412 days 159.963… 198.… 184.…  77.… 214.… 292.…
 4 Aaleyah 183.860531 days  88.26322 days   0.000…   9.… 261.… 259.… 214.… 100.…
 5 Aamia    70.429895 days 149.78110 days 122.847…  40.…  32.…  74.… 116.… 161.…
 6 Aarish  232.188970 days 234.42468 days  70.517…   0.…   7.… 111.… 153.… 118.…
 7 Abdulah   8.890604 days  37.66665 days 130.246…   0.…   0.… 215.… 159.… 162.…
 8 Abhinav 221.372920 days 108.87628 days 114.363… 280.… 136.… 100.…  97.…  95.…
 9 Abhiram  73.235939 days 182.81309 days 295.836… 107.…  96.… 137.… 123.…  68.…
10 Abyade  107.638230 days 596.18206 days 168.711… 146.…  61.…  34.… 281.… 149.…
# … with 490 more rows
…
# A tibble: 3 × 6
  expression      min   median `itr/sec` mem_alloc `gc/sec`
  <bch:expr> <bch:tm> <bch:tm>     <dbl> <bch:byt>    <dbl>
1 1             3.89s    3.89s     0.257    2.96GB     14.9
2 2             2.86s    2.86s     0.350    2.22GB     12.2
3 3             2.81s    2.81s     0.356    2.21GB     12.8

And, well, they all run about the same. That kind of just leaves us with the sinking feeling that all of this was futile and that for loops really aren’t that bad. In fact, the for loop solution may be the easiest to read and doesn’t use any tricks that someone reviewing your code may not understand at first.

We know we have some missing values in our data, so we’re going to use the the tidyr::complete() function to help with that.

res

# A tibble: 500 × 9
   subj    `10`            `20`           `30`     `40`  `50`  `60`  `70`  `80` 
   <chr>   <drtn>          <drtn>         <drtn>   <drt> <drt> <drt> <drt> <drt>
 1 Aadhya  161.754770 days 125.59109 days   0.000…  73.…   0.…  61.…   0.…  23.…
 2 Aaditri  30.671230 days 172.20370 days   0.000… 224.… 131.… 193.…  67.…  93.…
 3 Aaleeya 174.678539 days 115.27412 days 159.963… 198.… 184.…  77.… 214.… 292.…
 4 Aaleyah 183.860531 days  88.26322 days   0.000…   9.… 261.… 259.… 214.… 100.…
 5 Aamia    70.429895 days 149.78110 days 122.847…  40.…  32.…  74.… 116.… 161.…
 6 Aarish  232.188970 days 234.42468 days  70.517…   0.…   7.… 111.… 153.… 118.…
 7 Abdulah   8.890604 days  37.66665 days 130.246…   0.…   0.… 215.… 159.… 162.…
 8 Abhinav 221.372920 days 108.87628 days 114.363… 280.… 136.… 100.…  97.…  95.…
 9 Abhiram  73.235939 days 182.81309 days 295.836… 107.…  96.… 137.… 123.…  68.…
10 Abyade  107.638230 days 596.18206 days 168.711… 146.…  61.…  34.… 281.… 149.…
# … with 490 more rows

df %>% 
  complete(subj, dose, fill = list(time = difftime0)) %>% 
  group_by(subj, dose) %>% 
  summarise(time = sum(time), .groups = "drop_last") %>%
  mutate(time = foo1(dose, time)) %>% 
  pivot_wider(
    names_from = "dose",
    names_sort = TRUE,
    values_from = "time"
  )

# A tibble: 500 × 9
# Groups:   subj [500]
   subj    `10`           `20`           `30`      `40`  `50`  `60`  `70`  `80` 
   <chr>   <drtn>         <drtn>         <drtn>    <drt> <drt> <drt> <drt> <drt>
 1 Aadhya   446.5804 days  284.8256 days  159.234… 159.…  85.…  85.…  23.…  23.…
 2 Aaditri  913.9830 days  883.3118 days  711.108… 711.… 486.… 354.… 161.…  93.…
 3 Aaleeya 1417.4559 days 1242.7773 days 1127.503… 967.… 769.… 584.… 507.… 292.…
 4 Aaleyah 1117.0842 days  933.2237 days  844.960… 844.… 835.… 573.… 314.… 100.…
 5 Aamia    769.4857 days  699.0558 days  549.274… 426.… 385.… 352.… 278.… 161.…
 6 Aarish   927.1830 days  694.9940 days  460.569… 390.… 390.… 382.… 271.… 118.…
 7 Abdulah  714.1323 days  705.2417 days  667.575… 537.… 537.… 537.… 321.… 162.…
 8 Abhinav 1154.8195 days  933.4466 days  824.570… 710.… 429.… 292.… 192.…  95.…
 9 Abhiram 1086.0283 days 1012.7924 days  829.979… 534.… 426.… 329.… 192.…  68.…
10 Abyade  1545.7654 days 1438.1272 days  841.945… 673.… 526.… 465.… 431.… 149.…
# … with 490 more rows
…
