Selecting columns in dplyr - JM Barbone
…
    filter, lag

The following objects are masked from 'package:base':

    intersect, setdiff, setequal, union

We’ll use a data set from the psych package that has relatively, very short column names.
We’ll want to take these and make them a bit more specific without incurring much penalty with ourselves.
Trying to manage column names with spaces and other special characters can be a real thorn in the index finger.

data("bfi", package = "psych")
sapa <- tibble::as_tibble(bfi)[1:100, c(1:2, 6:7, 11:12, 16:17, 26:28)] # shorter
sapa

# A tibble: 100 x 11
      A1    A2    C1    C2    E1    E2    N1    N2 gender education   age
   <int> <int> <int> <int> <int> <int> <int> <int>  <int>     <int> <int>
 1     2     4     2     3     3     3     3     4      1        NA    16
 2     2     4     5     4     1     1     3     3      2        NA    18
 3     5     4     4     5     2     4     4     5      2        NA    17
 4     4     4     4     4     5     3     2     5      2        NA    17
 5     2     3     4     4     2     2     2     3      1        NA    17
 6     6     6     6     6     2     1     3     5      2         3    21
 7     2     5     5     4     4     3     1     2      1        NA    18
 8     4     3     3     2     3     6     6     3      1         2    19
 9     4     3     6     6     5     3     5     5      1         1    19
10     2     5     6     5     2     2     5     5      2        NA    17
# ... with 90 more rows
…
  select(
    gender,
    education,
    age,
    `Indifferent to feelings`      = A1,
    `Inquire about well-being`     = A2,
    `Exacting about work`          = C1,
    `Continue until perfection`    = C2,
    `Don't talk a lot`             = E1,
    `Difficult to approach others` = E2,
    `Get angry easily`             = N1,
    `Get irritated easily`         = N2
  )

# A tibble: 100 x 11
   gender education   age `Indifferent to~ `Inquire about ~ `Exacting about~
    <int>     <int> <int>            <int>            <int>            <int>
 1      1        NA    16                2                4                2
 2      2        NA    18                2                4                5
 3      2        NA    17                5                4                4
 4      2        NA    17                4                4                4
 5      1        NA    17                2                3                4
 6      2         3    21                6                6                6
 7      1        NA    18                2                5                5
 8      1         2    19                4                3                3
 9      1         1    19                4                3                6
10      2        NA    17                2                5                6
# ... with 90 more rows, and 5 more variables: `Continue until
#   perfection` <int>, `Don't talk a lot` <int>, `Difficult to approach
#   others` <int>, `Get angry easily` <int>, `Get irritated easily` <int>

We can use the tidyselect::all_of() function without as it is reexported with dplyr.

sapa %>% 
  select(all_of(long_names))

# A tibble: 100 x 11
   gender education   age `Indifferent to~ `Inquire about ~ `Exacting about~
    <int>     <int> <int>            <int>            <int>            <int>
 1      1        NA    16                2                4                2
 2      2        NA    18                2                4                5
 3      2        NA    17                5                4                4
 4      2        NA    17                4                4                4
 5      1        NA    17                2                3                4
 6      2         3    21                6                6                6
 7      1        NA    18                2                5                5
 8      1         2    19                4                3                3
 9      1         1    19                4                3                6
10      2        NA    17                2                5                6
# ... with 90 more rows, and 5 more variables: `Continue until
#   perfection` <int>, `Don't talk a lot` <int>, `Difficult to approach
#   others` <int>, `Get angry easily` <int>, `Get irritated easily` <int>
…
Yes.

We get the same result and don’t need to clog up the piped if we need to do some mutation, grouping, summarising, etc.
This also lets us separate out definitions of the data in case we need to change things:

long_names_less <- long_names[c(1, 3, grep("about", names(long_names)))]

sapa %>% 
  select(all_of(long_names_less))

# A tibble: 100 x 4
   gender   age `Inquire about well-being` `Exacting about work`
    <int> <int>                      <int>                 <int>
 1      1    16                          4                     2
 2      2    18                          4                     5
 3      2    17                          4                     4
 4      2    17                          4                     4
 5      1    17                          3                     4
 6      2    21                          6                     6
 7      1    18                          5                     5
 8      1    19                          3                     3
 9      1    19                          3                     6
10      2    17                          5                     6
# ... with 90 more rows
…
invert_names <- function(x) {
  x <- fill_names(x)
  out <- names(x)
  names(out) <- x
  out
}

sapa2 <- sapa %>% select(all_of(long_names))

long_names_inverted <- invert_names(long_names)

sapa2 %>% 
  select(all_of(long_names_inverted))

# A tibble: 100 x 11
   gender education   age    A1    A2    C1    C2    E1    E2    N1    N2
    <int>     <int> <int> <int> <int> <int> <int> <int> <int> <int> <int>
 1      1        NA    16     2     4     2     3     3     3     3     4
 2      2        NA    18     2     4     5     4     1     1     3     3
 3      2        NA    17     5     4     4     5     2     4     4     5
 4      2        NA    17     4     4     4     4     5     3     2     5
 5      1        NA    17     2     3     4     4     2     2     2     3
 6      2         3    21     6     6     6     6     2     1     3     5
 7      1        NA    18     2     5     5     4     4     3     1     2
 8      1         2    19     4     3     3     2     3     6     6     3
 9      1         1    19     4     3     6     6     5     3     5     5
10      2        NA    17     2     5     6     5     2     2     5     5
# ... with 90 more rows
…
