Solving one task with three equivalent solutions: for, do.call, vapply - JM Barbone
…
Let’s create some random data to represent our subjects, our doses, and an arbitrary time metric.
We’re also going to make this harder by using the difftime.

We’re also going to grab some names using a function from the wakefield package which you can use to create fake data, appropriately named. [^note]

^note: I’m not too savvy with this package yet but would like to experiment more for building dummy data sets.

subj <- sort(sample(wakefield::name(500), 1e4, TRUE))
dose <- sample(seq.int(10, 80, 10), 1e4, TRUE)
time <- as.difftime(runif(1e4) * 100, units = "days")

df <- tibble(subj, dose, time)
df

# A tibble: 10,000 x 3
   subj     dose time          
   <chr>   <dbl> <drtn>        
 1 Aadhya     10 81.430584 days
 2 Aadhya     10 80.324186 days
 3 Aadhya     40 64.917350 days
 4 Aadhya     80 17.631323 days
 5 Aadhya     40  8.970711 days
 6 Aadhya     20 96.518079 days
 7 Aadhya     60 61.493537 days
 8 Aadhya     20 29.073014 days
 9 Aadhya     80  6.221622 days
10 Aaditri    50 54.387006 days
# ... with 9,990 more rows

Finding the total sum of time at each dose is easy:

df %>% 
  group_by(subj, dose) %>% 
  summarise(time = sum(time), .groups = "drop") %>% 
  pivot_wider(names_from = "dose",
              names_sort = TRUE,
              values_from = "time")

# A tibble: 500 x 9
   subj   `10`      `20`     `30`     `40`      `50`     `60`    `70`    `80`   
   <chr>  <drtn>    <drtn>   <drtn>   <drtn>    <drtn>   <drtn>  <drtn>  <drtn> 
 1 Aadhya 161.7547~ 125.591~        ~  73.8880~        ~  61.49~       ~  23.85~
 2 Aadit~  30.6712~ 172.203~        ~ 224.9110~ 131.421~ 193.56~  67.98~  93.22~
 3 Aalee~ 174.6785~ 115.274~ 159.963~ 198.0695~ 184.672~  77.62~ 214.77~ 292.39~
 4 Aaley~ 183.8605~  88.263~        ~   9.1255~ 261.859~ 259.78~ 214.15~ 100.03~
 5 Aamia   70.4298~ 149.781~ 122.847~  40.4504~  32.994~  74.87~ 116.54~ 161.57~
 6 Aarish 232.1889~ 234.424~  70.517~         ~   7.558~ 111.19~ 153.24~ 118.05~
 7 Abdul~   8.8906~  37.666~ 130.246~         ~        ~ 215.40~ 159.77~ 162.15~
 8 Abhin~ 221.3729~ 108.876~ 114.363~ 280.9107~ 136.460~ 100.08~  97.43~  95.31~
 9 Abhir~  73.2359~ 182.813~ 295.836~ 107.8884~  96.700~ 137.15~ 123.40~  68.99~
10 Abyade 107.6382~ 596.182~ 168.711~ 146.6280~  61.121~  34.35~ 281.28~ 149.84~
# ... with 490 more rows
Oh, it looks like we have some missing values (see the first line where we are missing doses of 30, 50, and 70 for Aadhya.).
tidyr::pivot_wider() allows us to fill in the missing values but like many tidyverse functions, we’ll have to be explicit with the type so as to not case any accidental issues.

difftime0 <- as.difftime(0, units = "days")

res <- df %>% 
  group_by(subj, dose) %>% 
  summarise(time = sum(time), .groups = "drop") %>% 
  pivot_wider(names_from = "dose",
              names_sort = TRUE,
              values_from = "time",
              values_fill = difftime0)
res

# A tibble: 500 x 9
   subj   `10`      `20`     `30`     `40`      `50`     `60`    `70`    `80`   
   <chr>  <drtn>    <drtn>   <drtn>   <drtn>    <drtn>   <drtn>  <drtn>  <drtn> 
 1 Aadhya 161.7547~ 125.591~   0.000~  73.8880~   0.000~  61.49~   0.00~  23.85~
 2 Aadit~  30.6712~ 172.203~   0.000~ 224.9110~ 131.421~ 193.56~  67.98~  93.22~
 3 Aalee~ 174.6785~ 115.274~ 159.963~ 198.0695~ 184.672~  77.62~ 214.77~ 292.39~
 4 Aaley~ 183.8605~  88.263~   0.000~   9.1255~ 261.859~ 259.78~ 214.15~ 100.03~
 5 Aamia   70.4298~ 149.781~ 122.847~  40.4504~  32.994~  74.87~ 116.54~ 161.57~
 6 Aarish 232.1889~ 234.424~  70.517~   0.0000~   7.558~ 111.19~ 153.24~ 118.05~
 7 Abdul~   8.8906~  37.666~ 130.246~   0.0000~   0.000~ 215.40~ 159.77~ 162.15~
 8 Abhin~ 221.3729~ 108.876~ 114.363~ 280.9107~ 136.460~ 100.08~  97.43~  95.31~
 9 Abhir~  73.2359~ 182.813~ 295.836~ 107.8884~  96.700~ 137.15~ 123.40~  68.99~
10 Abyade 107.6382~ 596.182~ 168.711~ 146.6280~  61.121~  34.35~ 281.28~ 149.84~
# ... with 490 more rows
…
And, well, they all run about the same.
That kind of just leaves us with the sinking feeling that all of this was futile and that for loops really aren’t that bad.
In fact, the for loop solution may be the easiest to read and doesn’t use any tricks that someone reviewing your code may not understand at first.

We know we have some missing values in our data, so we’re going to use the the tidyr::complete() function to help with that.

res

# A tibble: 500 x 9
   subj   `10`      `20`     `30`     `40`      `50`     `60`    `70`    `80`   
   <chr>  <drtn>    <drtn>   <drtn>   <drtn>    <drtn>   <drtn>  <drtn>  <drtn> 
 1 Aadhya 161.7547~ 125.591~   0.000~  73.8880~   0.000~  61.49~   0.00~  23.85~
 2 Aadit~  30.6712~ 172.203~   0.000~ 224.9110~ 131.421~ 193.56~  67.98~  93.22~
 3 Aalee~ 174.6785~ 115.274~ 159.963~ 198.0695~ 184.672~  77.62~ 214.77~ 292.39~
 4 Aaley~ 183.8605~  88.263~   0.000~   9.1255~ 261.859~ 259.78~ 214.15~ 100.03~
 5 Aamia   70.4298~ 149.781~ 122.847~  40.4504~  32.994~  74.87~ 116.54~ 161.57~
 6 Aarish 232.1889~ 234.424~  70.517~   0.0000~   7.558~ 111.19~ 153.24~ 118.05~
 7 Abdul~   8.8906~  37.666~ 130.246~   0.0000~   0.000~ 215.40~ 159.77~ 162.15~
 8 Abhin~ 221.3729~ 108.876~ 114.363~ 280.9107~ 136.460~ 100.08~  97.43~  95.31~
 9 Abhir~  73.2359~ 182.813~ 295.836~ 107.8884~  96.700~ 137.15~ 123.40~  68.99~
10 Abyade 107.6382~ 596.182~ 168.711~ 146.6280~  61.121~  34.35~ 281.28~ 149.84~
# ... with 490 more rows

df %>% 
  complete(subj, dose, fill = list(time = difftime0)) %>% 
  group_by(subj, dose) %>% 
  summarise(time = sum(time), .groups = "drop_last") %>%
  mutate(time = foo1(dose, time)) %>% 
  pivot_wider(names_from = "dose",
              names_sort = TRUE,
              values_from = "time")

# A tibble: 500 x 9
# Groups:   subj [500]
   subj   `10`     `20`     `30`     `40`     `50`     `60`     `70`     `80`   
   <chr>  <drtn>   <drtn>   <drtn>   <drtn>   <drtn>   <drtn>   <drtn>   <drtn> 
 1 Aadhya  446.58~  284.82~  159.23~ 159.234~  85.346~  85.346~  23.852~  23.85~
 2 Aadit~  913.98~  883.31~  711.10~ 711.108~ 486.197~ 354.775~ 161.214~  93.22~
 3 Aalee~ 1417.45~ 1242.77~ 1127.50~ 967.539~ 769.470~ 584.797~ 507.168~ 292.39~
 4 Aaley~ 1117.08~  933.22~  844.96~ 844.960~ 835.834~ 573.975~ 314.189~ 100.03~
 5 Aamia   769.48~  699.05~  549.27~ 426.427~ 385.976~ 352.982~ 278.111~ 161.57~
 6 Aarish  927.18~  694.99~  460.56~ 390.051~ 390.051~ 382.493~ 271.300~ 118.05~
 7 Abdul~  714.13~  705.24~  667.57~ 537.329~ 537.328~ 537.328~ 321.928~ 162.15~
 8 Abhin~ 1154.81~  933.44~  824.57~ 710.207~ 429.296~ 292.835~ 192.746~  95.31~
 9 Abhir~ 1086.02~ 1012.79~  829.97~ 534.142~ 426.253~ 329.553~ 192.403~  68.99~
10 Abyade 1545.76~ 1438.12~  841.94~ 673.233~ 526.605~ 465.484~ 431.129~ 149.84~
# ... with 490 more rows
…
