J M Barbone - Dunning-Kruger Effect
…
\[\text{PR}_i = \frac{c_\ell + 0.5 f_i}{N} \times 100%\]

Where \(c_\ell\) is the count of scores lower than the score of interest, \(f_i\) is the frequency of the score of interest, and \(N\) is the total number of scores. With this formula, our percentile ranks will always be 0 < \(PR_i\) < 100.

random_data <- 
  tibble(
    actual = rnorm(1000),
    estimate = rnorm(1000)
  ) %>% 
  mutate(across(everything(), percentile_rank))

random_data

# A tibble: 1,000 × 2
   actual estimate
    <dbl>    <dbl>
 1  0.920   0.988 
 2  0.292   0.704 
 3  0.657   0.846 
 4  0.738   0.647 
 5  0.670   0.150 
 6  0.462   0.274 
 7  0.947   0.576 
 8  0.464   0.0005
 9  0.980   0.198 
10  0.480   0.799 
# … with 990 more rows
…
  x %>% 
    nest(data = -id) %>% 
    mutate(
      corr = map(data, corr_helper, item_x, item_y),
      tidy = map(corr, tidy)
    ) %>% 
    unnest(tidy) %>% 
    select(where(negate(is.list)))
}

(x <- run_correlations(sev_random, "actual", "estimate") %>% arrange(p.value))

# A tibble: 100 × 9
      id estimate statistic p.value parameter conf.low conf.high method         
   <dbl>    <dbl>     <dbl>   <dbl>     <int>    <dbl>     <dbl> <chr>          
 1    35   -0.207     -2.67 0.00830       159 -0.351    -0.0545  Pearson's prod…
 2    24    0.185      2.37 0.0188        159  0.0312    0.330   Pearson's prod…
 3    99    0.170      2.17 0.0314        159  0.0154    0.316   Pearson's prod…
 4    22   -0.164     -2.09 0.0379        159 -0.311    -0.00930 Pearson's prod…
 5    90   -0.159     -2.03 0.0443        159 -0.306    -0.00417 Pearson's prod…
 6     6    0.148      1.89 0.0610        159 -0.00685   0.296   Pearson's prod…
 7     9    0.141      1.79 0.0747        159 -0.0141    0.289   Pearson's prod…
 8    97    0.133      1.70 0.0914        159 -0.0216    0.282   Pearson's prod…
 9    51   -0.127     -1.61 0.109         159 -0.276     0.0285  Pearson's prod…
10    89   -0.124     -1.57 0.118         159 -0.273     0.0316  Pearson's prod…
# … with 90 more rows, and 1 more variable: alternative <chr>

(y <- run_correlations(sev_bins, "bin", "mean_est") %>% arrange(p.value))

# A tibble: 100 × 9
# Groups:   id [100]
      id estimate statistic p.value parameter conf.low conf.high method         
   <dbl>    <dbl>     <dbl>   <dbl>     <int>    <dbl>     <dbl> <chr>          
 1    99    0.936      4.62  0.0191         3    0.312     0.996 Pearson's prod…
 2    35   -0.936     -4.61  0.0192         3   -0.996    -0.309 Pearson's prod…
 3    28   -0.907     -3.72  0.0337         3   -0.994    -0.122 Pearson's prod…
 4    41    0.845      2.74  0.0715         3   -0.146     0.990 Pearson's prod…
 5    68    0.836      2.64  0.0780         3   -0.177     0.989 Pearson's prod…
 6     5   -0.804     -2.34  0.101          3   -0.987     0.269 Pearson's prod…
 7     6    0.796      2.28  0.107          3   -0.290     0.986 Pearson's prod…
 8    10    0.786      2.20  0.115          3   -0.314     0.985 Pearson's prod…
 9    89   -0.761     -2.03  0.135          3   -0.983     0.369 Pearson's prod…
10    13   -0.758     -2.01  0.138          3   -0.983     0.376 Pearson's prod…
# … with 90 more rows, and 1 more variable: alternative <chr>
…
